DATE,CUUR0000SA0R
2018-12-01,39.8
2019-01-01,39.7
2019-02-01,39.6
2019-03-01,39.3
2019-04-01,39.1
2019-05-01,39.0
2019-06-01,39.0
2019-07-01,39.0
2019-08-01,39.0
2019-09-01,38.9
2019-10-01,38.9
2019-11-01,38.9
2019-12-01,38.9
2020-01-01,38.8
2020-02-01,38.7
2020-03-01,38.7
2020-04-01,39.0
2020-05-01,39.0
2020-06-01,38.8
2020-07-01,38.6
2020-08-01,38.5
2020-09-01,38.4
2020-10-01,38.4
2020-11-01,38.4
2020-12-01,38.4
2021-01-01,38.2
2021-02-01,38.0
2021-03-01,37.8
2021-04-01,37.4
2021-05-01,37.1
2021-06-01,36.8
2021-07-01,36.6
2021-08-01,36.6
